Obtaining list of servers...
39 servers matched
USA, New York, Albany (LOC1 S1)	67.231.254.2	TCP	UDP
USA, New York, Manhattan (LOC1 S1)	174.34.168.74	TCP	UDP
USA, New York, Manhattan (LOC1 S10)	108.62.139.122	TCP	UDP
USA, New York, Manhattan (LOC1 S11)	108.62.138.242	TCP	UDP
USA, New York, Manhattan (LOC1 S2)	64.120.28.26	TCP	UDP
USA, New York, Manhattan (LOC1 S3)	173.234.233.226	TCP	UDP
USA, New York, Manhattan (LOC1 S4)	173.208.45.130	TCP	UDP
USA, New York, Manhattan (LOC1 S5)	173.234.157.210	TCP	UDP
USA, New York, Manhattan (LOC1 S6)	173.234.157.218	TCP	UDP
USA, New York, Manhattan (LOC1 S7)	64.120.46.242	TCP	UDP
USA, New York, Manhattan (LOC1 S8)	173.234.157.186	TCP	UDP
USA, New York, Manhattan (LOC1 S9)	64.120.44.162	TCP	UDP
USA, New York, Manhattan (LOC1 S12)	173.208.45.194	TCP	UDP
USA, New York, Manhattan (LOC1 S13)	173.208.45.170	TCP	UDP
USA, New York, Albany (LOC1 S2)	173.233.78.194	TCP	UDP
USA, New York, Manhattan (LOC1 S14)	64.120.46.218	TCP	UDP
USA, New York, Manhattan (LOC1 S15)	173.208.45.234	TCP	UDP
USA, New York, Albany (LOC1 S3)	173.233.84.130	TCP	UDP
USA, New York, Albany (LOC1 S4)	173.198.240.98	TCP	UDP
USA, New York, Albany (LOC1 S5)	209.240.97.2	TCP	UDP
USA, New York, Albany (LOC1 S6)	209.240.97.130	TCP	UDP
USA, New York, Albany (LOC1 S7)	209.240.98.2	TCP	UDP
USA, New York, Buffalo (LOC1 S1)	192.157.56.138	TCP	UDP
USA, New York, Buffalo (LOC1 S2)	192.157.56.146	TCP	UDP
USA, New York, Buffalo (LOC1 S3)	192.157.56.178	TCP	UDP
USA, New York, Albany (LOC1 S8)	173.233.65.162	TCP	UDP
USA, New York, Albany (LOC1 S9)	208.85.5.82	TCP	UDP
USA, New York, Albany (LOC1 S10)	67.231.244.90	TCP	UDP
USA, New York, Virtual Canada (LOC1 S1)	192.186.132.146	TCP	UDP
USA, New York, Virtual Canada (LOC1 S2)	192.186.132.250	TCP	UDP
USA, New York, Virtual UK (LOC1 S1)	192.186.132.130	TCP	UDP
USA, New York, Virtual UK (LOC1 S2)	192.186.132.138	TCP	UDP
USA, New York, Buffalo (LOC1 S4)	23.229.5.122	TCP	UDP
USA, New York, Buffalo (LOC1 S5)	23.229.5.114	TCP	UDP
USA, New York, Buffalo (LOC1 S6)	23.229.5.106	TCP	UDP
USA, New York, Albany (LOC1 S11)	209.240.98.130	TCP	UDP
USA, New York, Albany (LOC1 S12)	67.231.244.98	TCP	UDP
USA, New York, Albany (LOC1 S13)	67.231.251.66	TCP	UDP
USA, New York, Albany (LOC1 S14)	67.231.251.98	TCP	UDP
