87.76.12.174:8080
183.207.232.194:8080
183.207.232.119:8080
183.207.232.193:8080
211.141.130.245:8118
111.13.2.136:80
111.13.2.130:80
205.204.96.144:80
183.203.208.170:8118
183.203.208.166:8118
60.26.103.216:8118
123.118.145.25:8118
119.6.144.74:82
218.108.170.173:80
111.13.12.216:80
1.192.237.70:8118
219.141.230.93:80
111.161.126.98:80
119.6.144.74:83
222.87.129.218:81
181.49.15.162:3128
222.88.236.236:843
111.161.126.101:80
114.246.132.143:8118
210.101.131.232:8080
114.252.83.16:8118
119.6.136.126:843
119.6.144.70:83
119.254.116.37:808
119.6.144.70:80
119.6.144.78:81
119.6.144.78:83
183.203.208.165:8118
119.6.144.78:82
119.6.144.74:81
222.87.129.218:82
218.108.170.170:80
222.87.129.218:83
222.87.129.218:843
119.6.144.70:82
111.161.126.99:80
114.244.212.248:8118
111.13.12.202:80
119.6.144.70:81
218.108.170.168:80
210.245.20.170:80
222.88.236.236:80
180.115.124.172:8118
222.59.246.38:8118
119.6.144.70:843
187.44.14.156:8080
119.249.80.141:8585
213.92.197.70:80
180.153.100.242:82
187.0.222.167:3128
101.251.238.123:8080
114.112.91.97:90
220.181.32.106:80
202.108.23.247:80
77.81.105.147:8089
176.31.255.140:80
107.182.17.243:8089
69.197.148.18:7808
69.197.148.18:8089
77.81.105.147:7808
107.182.17.243:7808
64.31.22.143:7808
199.200.120.140:3127
64.31.22.143:8089
64.31.22.131:7808
199.200.120.140:7808
120.202.249.230:80
183.203.22.185:80
218.207.172.236:80
194.170.223.44:80
61.156.3.166:80
61.184.192.42:80
218.65.132.38:80
123.150.107.109:8000
61.156.35.2:3128
201.210.250.234:8080
218.59.144.95:80
118.26.147.119:80
202.197.227.228:8088
123.125.122.58:80
36.250.74.88:80
61.234.123.64:8080
218.65.132.38:8081
125.88.255.144:80
118.26.152.169:80
201.208.237.104:8080
218.59.144.95:81
66.162.208.10:3128
64.31.22.131:8089
218.90.174.167:3128
88.132.82.236:8088
60.55.42.177:3128
118.96.31.91:3128
197.157.93.4:8080
106.37.177.251:3128
199.200.120.140:8089
223.68.6.10:8000
180.102.62.7:8118
219.93.183.106:8080
220.169.18.69:8088
183.203.22.185:85
202.106.16.36:3128
203.100.80.81:8080
88.159.217.39:80
88.159.116.151:80
145.118.111.106:80
213.85.92.10:80
82.209.198.2:1080
130.180.57.98:8080
83.128.239.152:80
94.154.30.10:8090
83.69.210.114:3128
109.196.127.35:8888
212.57.179.29:2214
94.228.204.10:8080
94.228.205.2:8080
71.205.40.14:36340
89.179.243.126:3129
85.234.20.131:3128
217.21.213.126:8080
94.23.205.32:3128
37.57.39.5:8080
31.7.232.102:3128
62.163.131.145:80
62.231.8.98:8080
87.204.153.14:8080
62.103.107.9:80
94.154.26.25:8090
198.27.67.24:54335
145.116.19.100:80
83.169.33.229:8080
98.191.62.242:23397
94.154.26.24:8090
173.204.239.116:808
46.209.216.100:8080
89.22.16.53:8080
75.144.242.89:7004
208.83.106.105:9999
41.222.196.52:8080
177.234.12.202:3128
124.42.127.221:1080
41.207.116.37:3128
89.248.118.232:3128
64.74.219.86:80
195.46.164.155:3128
80.249.83.52:3128
41.207.106.85:3128
80.237.196.44:9050
50.22.206.179:8080
27.254.141.10:3128
94.203.216.205:80
201.116.227.171:3128
41.215.46.34:3128
50.131.80.8:17574
87.76.12.174:8080
183.207.232.194:8080
118.97.95.182:8080
183.207.232.119:8080
183.207.228.9:80
183.207.232.193:8080
199.200.120.36:8089
183.207.228.9:86
183.60.143.121:1080
183.207.228.8:80
222.124.198.136:3129
183.207.228.9:89
164.77.196.76:80
61.147.67.2:9123
202.119.199.147:1080
92.99.236.240:8118
46.219.119.16:3128
61.232.6.164:8081
94.154.26.132:8090
211.141.130.245:8118
111.13.2.136:80
190.92.87.85:8080
111.13.2.130:80
211.141.81.209:8118
71.9.127.141:52518
37.59.179.220:3128
61.147.67.2:9125
183.207.228.9:81
205.204.96.144:80
183.203.208.170:8118
183.203.208.166:8118
183.203.208.176:8118
212.120.174.44:8080
213.181.73.145:80
183.207.229.137:8000
84.42.3.3:3128
212.117.30.254:8080
60.26.103.216:8118
219.71.103.230:1998
222.59.244.14:8118
60.207.63.124:8118
182.254.214.64:8080
180.153.100.242:81
118.144.178.230:8118
62.75.229.121:3128
195.88.75.81:8080
188.27.153.73:8080
60.207.63.123:8118
144.76.13.220:8118
69.162.72.154:80
109.175.8.57:8080
218.108.170.164:80
118.144.156.249:8118
210.39.18.236:1080
123.118.145.25:8118
119.6.144.74:82
218.108.170.173:80
222.45.195.34:8118
119.6.144.74:843
222.88.236.236:82
199.200.120.36:7808
94.154.31.26:8090
111.13.12.216:80
218.108.170.166:80
1.192.237.70:8118
218.108.170.169:82
78.130.201.110:8080
41.75.201.146:8080
183.207.229.137:88
222.87.129.218:80
218.108.170.163:82
183.207.229.196:9999
109.224.56.210:8080
218.203.13.190:80
125.220.29.102:18186
219.141.230.93:80
89.232.139.253:80
54.169.89.132:8080
182.45.144.120:8585
218.108.168.70:80
177.12.23.227:8080
111.161.126.98:80
125.39.66.67:80
119.6.144.74:80
119.6.144.74:83
124.202.221.26:8118
222.87.129.218:81
181.49.15.162:3128
166.70.91.1:8080
177.102.141.170:3128
218.28.96.39:3128
217.219.131.130:3128
222.88.236.236:843
222.34.136.60:80
111.161.126.101:80
114.246.132.143:8118
60.206.239.195:8118
218.108.170.172:82
207.5.112.114:8080
218.108.170.172:80
218.108.168.70:82
218.108.170.168:82
218.108.170.167:82
210.101.131.232:8080
121.127.11.52:80
178.32.53.87:3128
94.154.31.18:8090
80.94.114.197:80
186.167.32.115:8080
109.104.144.42:8080
119.6.136.126:80
218.108.170.162:80
114.252.83.16:8118
218.7.132.1:8080
119.6.136.126:843
119.6.144.70:83
119.6.144.73:83
119.6.144.73:843
119.254.116.37:808
119.6.144.73:82
202.112.31.203:1080
119.6.144.70:80
222.45.196.17:8118
119.6.144.78:81
119.6.144.78:83
94.154.24.3:8090
180.153.100.242:84
177.75.42.33:8080
183.203.208.165:8118
195.81.186.116:80
202.38.95.66:1080
218.104.239.12:8118
195.151.218.237:8080
119.6.144.78:82
218.203.13.176:80
211.144.81.69:18000
46.209.70.75:8080
119.6.144.74:81
222.45.196.19:8118
46.16.226.10:8080
222.87.129.218:82
119.6.144.73:80
119.6.136.126:82
218.108.170.170:80
186.232.160.4:8080
218.108.170.164:82
81.214.73.225:8086
222.87.129.218:83
218.108.170.171:80
210.146.67.50:80
222.87.129.218:843
61.93.246.50:8080
119.6.144.70:82
124.94.216.186:8585
218.108.170.165:82
118.144.182.101:8118
115.239.210.199:80
60.206.88.209:8118
64.62.233.67:80
218.71.140.134:8585
218.108.170.165:80
111.161.126.99:80
222.132.29.10:8080
200.103.97.218:80
94.154.31.17:8090
92.50.144.98:8080
218.108.170.170:82
118.97.191.206:8080
218.204.77.131:8123
110.90.33.43:8118
114.244.212.248:8118
183.207.229.196:8088
218.108.170.163:80
218.108.170.171:82
46.151.209.197:8080
111.13.12.202:80
218.108.170.169:80
198.71.51.227:80
183.207.229.137:9001
119.6.144.70:81
183.224.1.30:80
218.108.170.167:80
194.126.140.195:8080
81.163.88.18:8080
41.207.116.229:3128
124.200.185.102:8118
218.108.170.168:80
186.232.160.54:8080
218.108.170.166:82
31.15.48.12:80
89.234.195.145:80
190.221.29.214:8080
185.13.38.196:3128
109.175.8.53:8080
218.91.206.146:8001
118.97.237.77:8080
86.122.124.11:80
46.108.108.240:8080
85.234.22.126:3128
190.124.251.206:8080
211.86.62.34:1080
213.181.73.145:8080
188.165.85.115:3128
118.144.54.247:8118
177.107.97.246:8080
114.255.183.173:8080
27.159.194.215:8118
59.56.173.75:8585
115.186.134.10:8118
210.245.20.170:80
118.174.149.118:8080
24.172.34.114:8181
180.153.100.242:80
219.145.93.110:8080
60.206.153.177:8118
49.1.245.239:3128
119.6.144.78:80
222.88.236.236:80
222.88.236.236:83
94.154.31.12:8090
196.200.80.78:80
212.199.103.94:3128
201.73.245.179:3128
112.65.19.122:8080
93.189.118.230:80
202.99.172.145:8081
94.154.31.7:8090
118.233.194.167:8909
59.38.32.35:1111
188.132.226.2:80
59.151.103.15:80
210.101.131.231:8080
117.27.157.111:8081
211.152.50.70:80
59.108.4.32:9000
180.115.124.172:8118
202.101.96.154:8888
59.149.1.82:80
189.112.88.65:3128
94.242.57.49:8080
202.53.254.99:8080
177.21.227.126:8080
114.255.183.163:8080
222.59.246.38:8118
118.193.158.146:8080
166.70.51.198:8080
188.138.247.175:8080
1.93.8.169:3128
119.6.144.70:843
85.111.25.189:8080
49.1.245.241:3128
190.151.10.226:8080
61.147.67.2:9124
125.214.163.2:8080
222.85.1.123:8118
187.44.14.156:8080
200.10.67.162:8080
119.249.80.141:8585
210.57.215.174:8080
139.0.2.170:8080
212.68.51.58:80
164.77.196.75:80
92.255.197.224:8080
124.6.135.170:3128
82.117.163.74:8080
222.45.251.117:8080
212.76.87.188:80
123.30.75.115:80
202.70.2.107:8088
200.169.142.73:80
107.17.100.254:8080
115.29.247.115:8888
94.154.30.11:8090
177.47.238.18:8080
94.154.31.27:8090
213.92.197.70:80
180.153.100.242:82
145.255.4.150:8080
119.46.91.234:80
49.1.245.240:3128
60.207.216.252:8118
112.124.64.221:8000
183.62.172.50:9999
203.77.246.98:8080
193.165.68.68:443
218.108.170.173:82
78.109.137.225:3128
36.250.69.4:80
54.165.244.86:80
200.43.57.61:8080
89.234.195.145:8000
42.121.28.111:3128
49.1.245.238:3128
125.46.19.92:808
188.121.62.155:80
222.92.187.51:9999
210.57.208.14:443
89.191.147.4:8118
87.252.230.142:80
218.108.170.162:82
94.198.135.79:80
41.72.215.30:8080
202.162.198.178:8080
186.46.131.27:8080
178.18.25.85:3128
202.107.233.85:8080
112.72.9.66:8080
183.221.147.193:8123
94.154.31.33:8090
177.66.30.84:8080
183.62.60.100:80
119.6.144.73:81
122.200.90.172:3128
202.86.220.140:8080
121.12.167.197:3128
184.168.134.219:80
187.50.138.205:3128
194.247.12.174:3128
61.143.158.226:808
80.254.3.58:3128
94.154.26.182:8090
41.207.106.57:3128
218.203.13.174:80
203.93.106.31:3128
94.198.135.79:8080
94.154.31.6:8090
182.48.107.220:9000
222.88.242.213:9999
119.40.97.2:8080
187.0.222.167:3128
175.126.56.191:80
210.57.208.14:80
199.200.120.37:7808
114.80.207.175:810
41.160.59.12:8080
49.1.245.233:3128
101.251.238.123:8080
118.97.130.10:80
183.221.147.88:8123
125.24.78.30:8080
94.154.28.249:8090
182.92.67.54:80
211.144.81.68:18000
113.106.93.42:3128
37.187.97.36:3128
114.112.91.97:90
183.221.160.118:8123
200.27.79.74:8080
115.28.2.224:80
111.206.81.248:80
186.251.144.58:3129
173.234.237.198:3128
202.133.104.106:8080
176.241.83.173:8080
111.78.152.215:18186
58.240.65.57:3128
121.10.252.139:3128
54.237.125.156:8888
93.189.221.26:8080
211.144.76.58:9000
222.34.136.59:80
217.168.89.136:8080
210.82.92.77:3128
202.166.173.219:8080
212.13.49.186:8085
220.181.32.106:80
202.108.23.247:80
119.147.91.21:80
218.203.13.170:80
59.90.160.164:8080
200.11.228.84:3128
41.222.43.38:8080
119.147.86.212:9090
1.179.133.66:8080
223.4.21.184:80
41.207.116.217:3128
159.226.234.36:80
182.235.169.134:8088
41.205.107.89:8080
41.207.106.141:3128
62.243.224.181:1080
91.214.29.21:80
77.81.105.147:8089
218.203.13.172:80
176.31.255.140:80
37.49.137.243:80
74.50.126.248:3127
185.13.38.145:8118
74.50.126.249:8089
107.182.17.243:8089
69.197.148.18:7808
69.197.148.18:8089
77.81.105.147:7808
97.77.104.22:80
184.172.117.120:8081
107.182.17.243:7808
61.191.27.118:1818
23.25.88.181:8080
37.57.166.156:3128
193.232.184.141:8080
64.31.22.143:7808
199.200.120.140:3127
79.106.108.139:8080
199.200.120.37:8089
64.31.22.143:8089
64.31.22.131:7808
209.170.151.142:7808
199.200.120.140:7808
137.135.166.225:8118
109.251.10.3:8080
209.170.151.142:8089
192.3.21.243:8118
83.246.203.228:8118
183.207.229.138:8086
183.207.229.137:80
183.207.229.137:8080
183.207.229.138:8090
183.207.229.138:9090
183.207.229.196:9090
91.196.230.66:3128
190.204.148.71:8080
125.39.66.68:80
41.207.116.41:3128
120.202.249.230:80
219.93.183.93:80
190.77.135.47:8080
195.154.77.104:3128
218.207.208.55:8080
183.221.189.21:8123
190.203.107.31:8080
183.203.22.185:80
190.203.107.136:8080
190.38.53.213:8080
211.77.5.41:8081
218.207.172.236:80
190.202.209.96:8080
190.78.182.143:8080
186.88.193.179:8080
183.230.53.180:8123
217.33.193.179:3128
194.170.223.44:80
183.221.217.18:8123
190.36.146.208:8080
190.142.226.74:8080
186.92.149.181:8080
186.215.80.219:3128
201.211.123.238:8080
190.202.219.177:8080
113.53.249.29:9999
183.230.53.254:8123
177.69.67.250:3128
185.8.15.202:8080
186.215.80.218:3128
177.69.67.247:3128
177.69.67.244:3128
14.18.16.67:80
190.201.111.169:8080
190.198.151.81:8080
190.206.73.216:8080
200.93.111.78:8080
177.69.67.249:3128
186.92.148.98:8080
186.94.162.15:8080
190.206.233.110:8080
186.90.31.57:8080
101.4.60.47:80
186.95.74.2:8080
190.73.193.108:8080
201.211.118.49:8080
186.93.99.8:8080
177.69.67.241:3128
37.187.101.28:3128
201.209.195.26:8080
101.4.60.46:80
190.78.9.129:8080
177.69.67.245:3128
190.37.225.95:8080
117.21.192.7:80
201.210.244.192:8080
183.221.217.79:8123
177.69.67.252:3128
190.38.124.41:8080
186.92.9.52:8080
41.207.106.145:3128
186.95.76.86:8080
221.238.140.164:8080
190.204.102.76:8080
186.92.21.100:8080
186.88.46.122:8080
80.71.151.15:8080
201.211.102.67:8080
190.203.96.101:8080
101.4.60.50:80
186.90.80.152:8080
115.236.59.194:3128
186.90.20.223:8080
59.78.160.244:8080
190.79.159.176:8080
190.198.84.46:8080
183.221.220.34:8123
190.39.102.96:8080
186.93.109.145:8080
212.12.12.165:8080
186.92.121.181:8080
183.221.186.21:8123
183.221.220.126:8123
111.40.194.48:80
103.11.116.46:8080
190.198.221.27:8080
61.156.3.166:80
190.74.183.63:8080
61.184.192.42:80
190.38.83.209:8080
114.255.183.174:8080
186.95.15.122:8080
190.37.38.244:8080
218.65.132.38:80
183.207.229.137:6969
201.221.132.22:8080
113.214.13.1:8000
186.93.234.207:8080
183.221.217.60:8123
190.204.103.4:8080
190.203.251.211:8080
190.36.179.122:8080
190.204.89.208:8080
186.92.152.212:8080
186.94.53.171:8080
190.202.221.153:8080
85.185.42.6:8080
101.4.60.43:80
190.36.24.53:8080
190.207.203.55:8080
186.95.19.27:8080
190.205.144.79:8080
186.94.180.11:8080
190.37.55.151:8080
190.78.190.91:8080
190.201.99.231:8080
190.198.94.89:8080
218.60.56.95:8080
190.37.109.33:8080
190.198.156.78:8080
190.207.238.155:8080
190.203.103.128:8080
190.79.21.184:8080
190.207.237.74:8080
190.73.135.51:8080
190.36.166.40:8080
222.246.232.55:8101
190.207.228.61:8080
183.221.188.80:8123
186.95.171.180:8080
183.203.8.148:8080
186.94.46.66:8080
186.93.162.81:8080
190.203.143.53:8080
190.203.110.161:8080
190.207.194.102:8080
37.187.17.106:8080
186.95.199.162:8080
190.63.173.22:8080
190.73.136.28:8080
91.188.39.1:8888
85.185.42.3:8080
190.37.47.44:8080
186.94.85.45:8080
69.163.47.19:8118
190.73.227.231:8080
190.198.92.93:8080
189.59.9.218:8080
186.93.226.206:8080
182.253.35.124:8080
123.150.107.109:8000
186.93.193.196:8080
190.77.215.74:8080
186.92.254.209:8080
61.156.35.2:3128
190.72.25.162:8080
190.78.186.79:8080
190.207.169.90:8080
190.198.85.120:8080
186.94.52.231:8080
200.84.234.65:8080
201.248.238.153:8080
186.93.204.23:8080
186.88.169.40:8080
186.94.89.242:8080
201.210.250.234:8080
186.91.39.210:8080
202.159.29.206:8080
190.102.28.40:80
183.221.160.75:8123
218.59.144.95:80
118.98.218.82:8080
190.36.238.234:8080
118.26.147.119:80
183.221.189.62:8123
202.197.227.228:8088
190.77.230.226:8080
203.192.12.148:80
186.89.191.115:8080
190.38.77.120:8080
190.36.24.166:8080
123.30.75.115:3128
190.36.226.246:8080
183.221.175.76:8123
190.198.182.179:8080
186.95.44.214:8080
200.84.78.216:8080
183.230.53.204:8123
183.221.185.58:8123
183.221.170.172:8123
190.74.181.140:8080
121.14.138.56:81
203.192.12.146:80
190.40.123.35:8080
190.72.19.8:8080
61.53.143.179:80
61.161.201.196:8118
118.70.129.101:8080
114.255.183.164:8080
190.207.156.88:8080
186.91.205.57:8080
202.29.97.5:3128
200.93.94.228:8080
183.221.217.19:8123
123.125.122.58:80
183.221.220.121:8123
190.73.114.156:8080
201.242.41.200:8080
183.221.164.164:8123
190.207.235.140:8080
183.221.188.39:8123
119.53.51.190:8088
218.203.13.185:80
211.141.93.122:8123
218.207.53.138:8123
36.250.74.88:80
183.221.217.188:8123
123.71.208.198:8123
203.144.144.162:8080
190.102.17.180:80
200.84.66.187:8080
41.207.116.233:3128
183.221.217.182:8123
201.242.93.199:8080
190.201.216.49:8080
186.94.117.70:8080
190.73.235.213:8080
183.221.217.164:8123
183.221.187.33:8123
190.78.185.103:8080
122.136.46.151:3128
61.234.123.64:8080
117.135.244.41:80
59.78.160.248:8080
190.153.96.142:8080
190.36.155.111:8080
186.92.148.174:8080
186.93.23.204:8080
218.5.74.174:80
190.38.214.92:8080
190.198.83.149:8080
66.192.33.78:8080
120.199.246.76:8123
177.69.67.251:3128
190.207.236.96:8080
183.221.217.194:8123
117.21.192.9:80
190.36.161.201:8080
190.72.140.195:8080
186.88.46.32:8080
218.65.132.38:8081
183.221.160.107:8123
190.204.4.169:8080
201.248.232.248:8080
175.45.59.38:8080
190.198.229.4:8080
117.21.192.8:80
183.221.160.119:8123
218.203.13.184:80
62.245.223.227:80
186.88.34.121:8080
201.211.112.8:8080
190.199.48.113:8080
58.253.238.243:80
202.106.169.228:8080
60.217.242.157:80
190.204.71.242:8080
125.88.255.144:80
120.131.128.214:80
118.26.152.169:80
221.5.69.52:8085
114.222.91.227:8118
124.161.94.8:80
183.221.217.8:8123
190.198.147.126:8080
201.208.237.104:8080
218.59.144.95:81
116.236.216.116:8080
186.93.201.18:8080
190.198.83.232:8080
201.209.231.79:8080
221.176.14.72:80
180.109.204.44:8118
186.89.243.49:8080
60.191.39.252:80
176.194.189.56:8080
190.200.18.14:8080
183.221.174.92:8123
201.243.170.144:8080
186.93.138.87:8080
186.90.129.58:8080
190.201.105.57:8080
66.162.208.10:3128
201.242.77.249:8080
200.84.255.129:8080
222.132.11.6:8080
186.89.196.220:8080
183.221.188.123:8123
190.37.45.80:8080
221.5.69.51:80
186.93.167.10:8080
183.221.160.58:8123
186.91.42.164:8080
186.88.102.84:8080
190.78.21.200:8080
183.221.168.229:8123
183.224.99.148:8123
123.7.78.176:9999
190.39.113.187:8080
41.223.119.156:3128
89.234.199.60:8000
186.92.44.235:8080
103.10.170.115:80
111.13.55.3:22
220.134.217.149:8118
190.207.201.248:8080
183.221.217.141:8123
186.95.174.141:8080
183.221.164.202:8123
201.209.110.55:8080
186.90.84.183:8080
186.91.236.120:8080
190.73.234.166:8080
218.207.11.47:8123
190.202.245.186:8080
190.204.59.164:8080
186.93.192.214:8080
183.221.191.202:8123
183.230.114.203:8123
190.37.44.85:8080
186.94.19.98:8080
190.198.154.206:8080
190.207.198.156:8080
202.148.27.122:80
64.31.22.131:8089
183.171.210.148:8080
91.121.135.202:3128
37.49.137.243:3128
190.206.91.226:8080
190.198.84.57:8080
58.22.109.82:8088
190.74.203.215:8080
190.198.23.229:8080
218.90.174.167:3128
183.221.162.212:8123
167.160.36.35:3128
88.132.82.236:8088
190.207.230.179:8080
190.73.136.75:8080
183.230.53.33:8123
41.207.116.17:3128
183.221.217.44:8123
125.39.66.66:80
190.204.86.159:8080
190.206.114.160:8080
186.88.44.247:8080
190.74.72.49:8080
190.204.255.1:8080
190.74.58.57:8080
200.93.118.174:8080
113.140.25.4:81
201.211.123.136:8080
60.55.42.177:3128
183.221.160.39:8123
190.198.81.241:8080
190.77.213.109:8080
183.230.53.179:8123
183.207.229.137:9999
180.183.159.140:8080
122.54.243.123:8080
183.221.184.35:8123
42.48.21.204:8118
123.192.239.144:8118
212.12.12.163:8080
190.77.192.28:8080
218.29.154.54:8000
120.132.48.68:80
75.148.236.49:3128
190.77.213.73:8080
186.89.27.103:8080
186.91.100.7:8080
190.78.181.194:8080
183.221.217.67:8123
186.89.184.26:8080
190.38.1.101:8080
120.199.247.130:8123
190.198.154.238:8080
178.166.155.36:80
190.72.18.126:8080
182.88.248.191:8118
190.204.230.109:8080
201.211.106.177:8080
186.93.111.49:8080
183.221.171.67:8123
183.224.99.150:8123
190.204.103.130:8080
77.93.37.130:8080
200.84.234.42:8080
218.207.17.112:8123
195.191.78.129:8080
109.175.8.61:8080
190.198.151.61:8080
49.140.69.37:8118
190.74.181.149:8080
183.207.229.138:6969
118.96.31.91:3128
79.143.181.127:3128
190.40.123.34:8080
125.24.78.59:8080
124.40.252.242:8080
195.154.106.38:3128
186.91.161.175:8080
109.175.8.38:8080
190.198.144.5:8080
186.88.227.26:8080
186.91.57.192:8080
42.202.146.58:8080
125.24.77.74:8080
186.95.84.183:8080
190.207.143.58:8080
183.221.164.152:8123
121.12.120.246:2008
190.207.200.6:8080
183.221.185.43:8123
221.182.62.23:8123
190.77.14.2:8080
218.29.130.91:80
125.24.76.240:8080
190.40.123.36:8080
197.157.93.4:8080
190.37.98.184:8080
183.207.229.138:9001
221.182.62.115:9999
201.221.131.203:8080
186.90.85.7:8080
186.91.178.24:8080
190.36.120.190:8080
190.204.153.42:8080
186.95.19.25:8080
190.205.202.155:8080
183.221.164.96:8123
190.78.189.46:8080
186.215.231.214:8080
118.97.158.214:8080
114.215.154.95:8888
186.93.108.202:8080
183.221.220.50:8123
117.21.192.10:80
183.230.53.181:8123
190.207.236.158:8080
190.207.178.21:8080
186.88.42.152:8080
183.230.114.165:8123
202.133.104.106:80
106.37.177.251:3128
222.124.35.116:8080
183.221.53.114:8123
190.198.46.155:8080
187.50.138.202:3128
183.221.190.195:8123
200.90.126.192:8080
183.221.217.58:8123
190.78.180.116:8080
37.187.2.168:7777
190.36.236.168:8080
186.95.7.57:8080
42.51.13.103:8118
190.78.13.18:8080
190.36.166.25:8080
186.89.116.58:8080
190.198.157.149:8080
186.94.49.185:8080
164.100.222.80:80
201.243.43.9:8080
190.37.36.119:8080
168.63.24.174:8118
190.201.27.151:8080
190.202.255.111:8080
190.37.46.82:8080
66.135.33.230:3128
186.93.155.68:8080
186.88.35.117:8080
183.207.229.138:8888
186.93.101.166:8080
183.221.189.156:8123
190.201.107.63:8080
120.131.128.215:80
186.109.91.3:8080
186.94.17.187:8080
190.198.64.204:8080
186.89.198.210:8080
186.88.226.143:8080
201.210.157.249:8080
186.95.51.204:8080
186.88.67.198:8080
202.102.90.187:1920
183.230.53.183:8123
117.62.153.224:8118
183.221.186.176:8123
199.200.120.140:8089
190.201.161.117:8080
186.89.246.58:8080
183.221.160.38:8123
123.30.75.115:443
203.176.182.98:8080
183.230.53.184:8123
190.206.78.45:8080
218.22.73.22:1920
190.102.17.240:80
195.62.78.1:3128
200.84.132.132:8080
201.208.167.231:8080
201.232.104.7:8080
163.125.156.7:8888
201.242.162.41:8080
190.200.167.109:8080
54.88.93.12:80
186.93.133.179:8080
190.39.71.108:8080
190.200.37.29:8080
200.223.155.34:8080
190.204.102.201:8080
190.207.233.36:8080
5.9.70.75:8118
201.210.193.185:8080
118.96.138.7:8080
190.72.140.8:8080
183.221.171.64:8123
190.207.35.70:8080
146.185.142.221:8118
201.208.172.238:8080
118.97.144.102:8080
223.30.29.206:80
120.199.244.11:8123
190.38.57.133:8080
186.95.138.162:8080
223.68.6.10:8000
46.36.35.24:8118
122.136.46.151:80
210.209.72.236:80
196.45.51.27:8080
190.199.218.63:8080
186.93.175.50:8080
222.95.11.187:8118
218.207.16.20:8123
222.94.43.111:8118
200.84.61.64:8080
186.90.112.91:8080
183.221.220.232:8123
180.102.62.7:8118
183.230.53.191:8123
74.50.126.248:8089
202.159.6.98:8080
222.20.48.51:8118
186.91.193.75:8080
1.85.2.253:8001
190.204.169.137:8080
198.99.224.134:80
201.242.136.231:8080
74.50.126.248:7808
190.77.2.80:8080
190.204.165.86:8080
190.77.164.6:8080
190.128.170.18:8080
177.36.214.222:8080
31.40.113.27:3128
190.198.31.18:8080
190.36.15.184:8080
183.221.160.191:8123
190.201.228.15:8080
190.77.209.59:8080
190.206.43.87:8080
42.121.105.155:8888
186.91.88.120:8080
190.207.227.115:8080
190.199.229.122:8080
190.198.1.83:8080
219.93.183.106:8080
200.87.138.146:8080
119.97.164.48:8085
201.208.111.24:8080
176.31.239.33:8118
201.242.131.23:8080
183.221.160.164:8123
190.38.92.29:8080
190.201.96.126:8080
189.17.66.162:8080
220.169.18.69:8088
80.90.116.124:8080
217.21.146.130:8080
190.73.104.70:8080
66.228.47.169:8118
186.91.172.1:8080
190.78.17.32:8080
61.7.149.69:8080
195.40.6.43:8080
183.221.175.133:8123
190.79.155.36:8080
190.37.224.55:8080
190.199.75.240:8080
190.39.74.219:8080
60.207.166.152:80
116.254.206.12:80
222.89.224.142:8080
190.78.21.132:8080
190.201.42.129:8080
186.93.195.42:8080
58.215.185.46:82
64.26.152.44:80
190.205.156.218:8080
183.221.164.81:8123
190.203.195.168:8080
183.203.22.185:85
91.183.124.41:80
58.213.19.134:2311
190.142.211.37:8080
201.242.126.114:8080
184.155.113.212:3128
190.199.224.142:8080
190.201.219.33:8080
163.125.98.167:9999
202.106.16.36:3128
201.242.33.45:8080
186.89.211.242:8080
121.31.5.187:8080
186.94.29.159:8080
202.21.181.110:3128
201.208.178.188:8080
202.29.235.130:3129
186.91.173.141:8080
201.242.56.74:8080
190.204.171.67:8080
41.178.13.2:8080
203.100.80.81:8080
221.182.62.18:8123
41.72.105.38:3128
190.204.179.42:8080
186.90.28.117:8080
201.209.99.43:8080
190.78.28.225:8080
115.28.229.8:8088
201.242.74.128:8080
58.253.238.242:80
186.209.106.11:8080
186.92.13.89:8080
117.170.172.93:8123
189.85.29.110:8080
190.78.49.11:8080
85.185.42.2:8080
200.90.101.117:8080
202.148.27.122:8080
186.93.180.216:8080
186.91.226.155:8080
190.199.201.204:8080
202.153.229.98:8080
190.38.54.176:8080
190.200.217.151:8080
190.38.165.180:8080
201.248.115.161:8080
118.96.69.57:3128
119.60.53.222:8080
83.219.21.28:8080
190.198.216.80:8080
199.200.120.140:8089
69.197.148.18:7808
97.77.104.22:80
190.40.123.36:8080
94.203.216.205:80
118.97.95.182:8080
187.44.14.156:8080
190.207.206.163:8080
190.39.96.90:8080
119.6.144.74:843
190.205.218.139:8080
183.207.232.193:8080
183.203.22.185:85
183.221.217.194:8123
116.228.55.217:8003
183.203.208.176:8118
118.96.215.87:8080
183.221.162.212:8123
101.4.60.46:80
218.108.170.164:82
222.88.236.236:82
201.75.35.155:8080
125.88.255.144:80
221.5.69.51:80
123.125.122.58:80
111.13.55.3:22
195.211.219.15:3128
190.207.198.120:8080
119.188.94.145:80
218.108.168.70:82
182.254.214.64:8080
213.181.73.145:80
186.91.162.104:8080
190.200.20.71:8080
201.209.99.43:8080
186.94.83.57:8080
180.153.139.246:8888
178.32.53.87:3128
186.91.165.150:8080
58.214.5.229:80
218.108.170.172:82
199.200.120.140:3127
54.88.93.12:80
94.23.205.32:3128
190.73.232.141:8080
200.253.116.2:3128
210.101.131.231:8080
190.78.13.139:8080
113.214.13.1:8000
107.182.17.243:8089
107.182.17.243:7808
37.32.28.38:3128
202.70.2.107:8088
178.62.203.121:3128
213.85.92.10:80
186.93.106.239:8080
111.13.12.216:80
62.163.131.145:80
222.246.232.55:8101
201.211.242.68:8080
202.106.169.228:8080
218.59.144.95:81
190.198.190.73:8080
115.157.54.231:8118
195.175.75.114:8080
218.28.96.39:3128
183.207.228.8:80
190.77.135.47:8080
218.108.170.170:80
183.62.172.50:9999
119.6.144.78:82
41.223.119.156:3128
190.198.27.33:8080
210.245.20.170:80
83.219.21.28:8080
190.198.216.80:8080
199.200.120.140:8089
69.197.148.18:7808
97.77.104.22:80
190.40.123.36:8080
94.203.216.205:80
118.97.95.182:8080
187.44.14.156:8080
190.207.206.163:8080
190.39.96.90:8080
119.6.144.74:843
190.205.218.139:8080
183.207.232.193:8080
183.203.22.185:85
183.221.217.194:8123
116.228.55.217:8003
183.203.208.176:8118
118.96.215.87:8080
183.221.162.212:8123
101.4.60.46:80
218.108.170.164:82
222.88.236.236:82
201.75.35.155:8080
